module github.com/rachadiannovansyah/go-echo-boilerplate-ipj

go 1.12

require (
	github.com/ShkrutDenis/go-migrations v1.2.1
	github.com/alecthomas/template v0.0.0-20190718012654-fb15b899a751
	github.com/asaskevich/govalidator v0.0.0-20200907205600-7a23bdc65eef // indirect
	github.com/denisenkom/go-mssqldb v0.0.0-20200206145737-bbfc9a55622e // indirect
	github.com/dgrijalva/jwt-go v3.2.0+incompatible
	github.com/getsentry/sentry-go v0.11.0
	github.com/go-openapi/jsonreference v0.19.6 // indirect
	github.com/go-openapi/spec v0.20.3 // indirect
	github.com/go-openapi/swag v0.19.15 // indirect
	github.com/go-ozzo/ozzo-validation v3.6.0+incompatible
	github.com/go-sql-driver/mysql v1.5.0
	github.com/jinzhu/gorm v1.9.12
	github.com/jinzhu/now v1.1.1 // indirect
	github.com/jmoiron/sqlx v1.2.0
	github.com/joho/godotenv v1.3.0
	github.com/kr/pty v1.1.5 // indirect
	github.com/kr/text v0.2.0 // indirect
	github.com/labstack/echo/v4 v4.4.0
	github.com/lib/pq v1.4.0 // indirect
	github.com/mailru/easyjson v0.7.7 // indirect
	github.com/mattn/go-isatty v0.0.13 // indirect
	github.com/mattn/go-sqlite3 v2.0.3+incompatible // indirect
	github.com/niemeyer/pretty v0.0.0-20200227124842-a10e7caefd8e // indirect
	github.com/satori/go.uuid v1.2.0 // indirect
	github.com/selvatico/go-mocket v1.0.7
	github.com/stretchr/objx v0.2.0 // indirect
	github.com/stretchr/testify v1.6.1
	github.com/swaggo/echo-swagger v1.1.0
	github.com/swaggo/gin-swagger v1.2.0 // indirect
	github.com/swaggo/swag v1.7.0
	github.com/urfave/cli v1.22.2 // indirect
	golang.org/x/crypto v0.0.0-20210711020723-a769d52b0f97
	golang.org/x/net v0.0.0-20210726213435-c6fcb2dbf985 // indirect
	golang.org/x/sys v0.0.0-20210630005230-0f9fa26af87c // indirect
	golang.org/x/tools v0.1.5 // indirect
	gopkg.in/check.v1 v1.0.0-20200227125254-8fa46927fb4f // indirect
)
